Customer is:  2 Urpon Frisbee    Acumulated orders total:  $17,805.50
Customer is:  7 Aerobics valine Ky    Acumulated orders total:  $10,529.44
Customer is:  9 Pihtiputaan Pyora    Acumulated orders total:  $25,792.08
Customer is:  11 Keilailu ja Biljardi    Acumulated orders total:  $ 7,284.90
Customer is:  12 Surf Lautaveikkoset    Acumulated orders total:  $14,214.29
Customer is:  13 Biljardi ja tennis    Acumulated orders total:  $ 8,486.22
Customer is:  18 Antin Metsastysase    Acumulated orders total:  $13,084.33
